{
  "id": "aa313c68-46eb-4cbf-857d-5964bb828673",
  "name": "Come posso raggiungere il negozio di TIM?",
  "auto": true,
  "contexts": [],
  "responses": [
    {
      "resetContexts": false,
      "affectedContexts": [],
      "parameters": [
        {
          "id": "97e3d330-e39d-47b8-a3b7-266eb2f0edd6",
          "required": false,
          "dataType": "@sys.location",
          "name": "location",
          "value": "$location",
          "promptMessages": [],
          "noMatchPromptMessages": [],
          "noInputPromptMessages": [],
          "outputDialogContexts": [],
          "isList": true
        }
      ],
      "messages": [
        {
          "type": 0,
          "lang": "it",
          "condition": "",
          "speech": "Ci trovi al secondo piano box 32. Fai attenzione però, chiudiamo alle 21 perché andiamo tutti a vedere la Apple TV. La vuoi anche tu?"
        }
      ],
      "defaultResponsePlatforms": {},
      "speech": []
    }
  ],
  "priority": 500000,
  "webhookUsed": false,
  "webhookForSlotFilling": false,
  "fallbackIntent": false,
  "events": [],
  "conditionalResponses": [],
  "condition": "",
  "conditionalFollowupEvents": []
}