[
  {
    "id": "a6155f6e-1da8-4936-bca5-0da6d7e03aba",
    "data": [
      {
        "text": "Mandami le offerte sul numero ",
        "userDefined": false
      },
      {
        "text": "3927622734",
        "alias": "phone-number",
        "meta": "@sys.phone-number",
        "userDefined": false
      }
    ],
    "isTemplate": false,
    "count": 0,
    "updated": 0
  },
  {
    "id": "0a165a74-1b2c-4714-94fb-7c2ee61b2d05",
    "data": [
      {
        "text": "Puoi mandarmi le offerte di ",
        "userDefined": false
      },
      {
        "text": "natale",
        "alias": "date-time",
        "meta": "@sys.date-time",
        "userDefined": false
      },
      {
        "text": " sul numero ",
        "userDefined": false
      },
      {
        "text": "3927622734",
        "alias": "phone-number",
        "meta": "@sys.phone-number",
        "userDefined": false
      }
    ],
    "isTemplate": false,
    "count": 0,
    "updated": 0
  },
  {
    "id": "155f4669-bab9-4716-88e3-29d7dcc792f4",
    "data": [
      {
        "text": "Mandami le offerte di ",
        "userDefined": false
      },
      {
        "text": "natale",
        "alias": "date-time",
        "meta": "@sys.date-time",
        "userDefined": false
      },
      {
        "text": " sul numero ",
        "userDefined": false
      },
      {
        "text": "3927622734",
        "alias": "phone-number",
        "meta": "@sys.phone-number",
        "userDefined": false
      }
    ],
    "isTemplate": false,
    "count": 0,
    "updated": 0
  },
  {
    "id": "f1969fe9-23d1-4a35-8c75-b234d0b6ddbe",
    "data": [
      {
        "text": "numero ",
        "userDefined": false
      },
      {
        "text": "3477500540",
        "alias": "phone-number",
        "meta": "@sys.phone-number",
        "userDefined": false
      }
    ],
    "isTemplate": false,
    "count": 0,
    "updated": 0
  },
  {
    "id": "a00437db-5bbd-471a-a0db-16f39d358a44",
    "data": [
      {
        "text": "il mio telefono è 3333333333",
        "userDefined": false
      }
    ],
    "isTemplate": false,
    "count": 0,
    "updated": 0
  },
  {
    "id": "00db44bb-ef3c-4467-ab30-bb69af4b60c9",
    "data": [
      {
        "text": "il mio numero è 3333333333",
        "userDefined": false
      }
    ],
    "isTemplate": false,
    "count": 0,
    "updated": 0
  },
  {
    "id": "5a7a9f85-fb13-4d02-a86b-adcdd390a06a",
    "data": [
      {
        "text": "il mio numero di telefono è ",
        "userDefined": false
      },
      {
        "text": "3333333333",
        "alias": "phone-number",
        "meta": "@sys.phone-number",
        "userDefined": false
      }
    ],
    "isTemplate": false,
    "count": 0,
    "updated": 0
  }
]