[
  {
    "id": "608f0466-27ad-4dc3-a605-e072ad632c11",
    "data": [
      {
        "text": "Quanto costa andare all\u0027estero?",
        "userDefined": false
      }
    ],
    "isTemplate": false,
    "count": 1,
    "updated": 0
  },
  {
    "id": "68b16f3f-215e-41ea-b130-1337e268b54f",
    "data": [
      {
        "text": "E se vado all\u0027estero?",
        "userDefined": false
      }
    ],
    "isTemplate": false,
    "count": 0,
    "updated": 0
  },
  {
    "id": "51508744-59f1-4828-a5d5-e349c1919d74",
    "data": [
      {
        "text": "E se ",
        "userDefined": false
      },
      {
        "text": "vado in America",
        "alias": "location",
        "meta": "@sys.location",
        "userDefined": false
      },
      {
        "text": "?",
        "userDefined": false
      }
    ],
    "isTemplate": false,
    "count": 0,
    "updated": 0
  }
]