{
  "id": "306944cb-0841-4cac-a934-9830e6aad4ba",
  "name": "Quanto costa andare all\u0027estero?",
  "auto": true,
  "contexts": [],
  "responses": [
    {
      "resetContexts": false,
      "affectedContexts": [],
      "parameters": [
        {
          "id": "cdd52d05-047b-4eec-bb1d-449ccbe48ac3",
          "required": false,
          "dataType": "@sys.location",
          "name": "location",
          "value": "$location",
          "promptMessages": [],
          "noMatchPromptMessages": [],
          "noInputPromptMessages": [],
          "outputDialogContexts": [],
          "isList": false
        }
      ],
      "messages": [
        {
          "type": 0,
          "lang": "it",
          "condition": "",
          "speech": "Attiva TIM in Viaggio PASS e viaggi in tranquillità anche in rete. Attiva l’opzione allo store TIM, con il codice go! e avrai un simpatico omaggio da portare in valigia."
        }
      ],
      "defaultResponsePlatforms": {},
      "speech": []
    }
  ],
  "priority": 500000,
  "webhookUsed": false,
  "webhookForSlotFilling": false,
  "fallbackIntent": false,
  "events": [],
  "conditionalResponses": [],
  "condition": "",
  "conditionalFollowupEvents": []
}